…
## Data Wrangling


```r
# Use this R-Chunk to clean & wrangle your data!

respondants <- dat_multi %>% filter(question == "which_seen") %>% na.omit  
respondants$answer <-  gsub("Star Wars: Episode ", "", respondants$answer) 

respondants %>%  mutate(answer = factor(answer, level = c("I The Phantom Menace", "II Attack of the Clones","III Revenge of the Sith", "IV A New Hope", "V The Empire Strikes Back","VI Return of the Jedi")))
```

```
## # A tibble: 3,897 × 4
##    respondentid question   choice                                answer         
##           <dbl> <chr>      <chr>                                 <fct>          
##  1   3292879998 which_seen StarWars:EpisodeIThePhantomMenace     <NA>           
##  2   3292879998 which_seen StarWars:EpisodeIIAttackoftheClones   <NA>           
##  3   3292879998 which_seen StarWars:EpisodeIIIRevengeoftheSith   <NA>           
##  4   3292879998 which_seen StarWars:EpisodeIVANewHope            <NA>           
##  5   3292879998 which_seen StarWars:EpisodeVTheEmpireStrikesBack V The Empire S…
##  6   3292879998 which_seen StarWars:EpisodeVIReturnoftheJedi     VI Return of t…
##  7   3292765271 which_seen StarWars:EpisodeIThePhantomMenace     <NA>           
##  8   3292765271 which_seen StarWars:EpisodeIIAttackoftheClones   <NA>           
##  9   3292765271 which_seen StarWars:EpisodeIIIRevengeoftheSith   <NA>           
## 10   3292763116 which_seen StarWars:EpisodeIThePhantomMenace     <NA>           
## # ℹ 3,887 more rows
```
…
